<svg width="43" height="51" viewBox="0 0 43 51" fill="none" xmlns="http://www.w3.org/2000/svg">
<path d="M21.6494 50.772C32.951 50.772 42.1518 41.5712 42.1518 30.2697V18.9149H40.1574C33.9615 18.9149 28.9356 13.889 28.9356 7.69312V0.672852H26.9412C20.9048 0.672852 16.0119 5.59236 16.0119 11.6287V26.9989C13.4325 26.1745 11.571 23.7281 11.571 20.8827V16.5216H9.57664C4.81669 16.5216 0.907715 20.4041 0.907715 25.1906V30.0569C0.934307 41.4649 10.2415 50.772 21.6494 50.772ZM4.8965 25.164C4.8965 23.276 6.01335 21.6539 7.60887 20.9093C7.63546 26.6266 12.289 31.2802 18.0063 31.2802H20.0007V11.6287C20.0007 8.46429 22.1014 5.80509 25 4.95415V7.71971C25 15.4314 30.7704 21.8134 38.2161 22.7973V30.2963C38.2161 39.4173 30.797 46.8364 21.676 46.8364C12.4486 46.8364 4.92306 39.3109 4.92306 30.0835V25.164H4.8965Z" fill="white"/>
<path d="M29.2587 36.2257V28.9927H25.2965V36.2257C25.2965 36.3852 25.1635 36.5182 25.004 36.5182H17.771V40.4804H25.004C27.3441 40.507 29.2587 38.5924 29.2587 36.2257Z" fill="white"/>
</svg>
