<svg width="106" height="106" viewBox="0 0 106 106" fill="none" xmlns="http://www.w3.org/2000/svg">
<g filter="url(#filter0_dd_988_3099)">
<rect x="3" y="2" width="100" height="100" rx="50" fill="#3232FF"/>
<path d="M65.7055 51.5L68.8385 48.1739C71.7205 45.1164 71.7205 40.1437 68.8385 37.084L57.7287 25.2975C56.3309 23.8168 54.4762 23 52.5021 23C50.5279 23 48.6711 23.8168 47.2755 25.2997L36.1656 37.084C34.7699 38.5669 34 40.5324 34 42.629L34.0144 60.8406C34.1194 62.7602 34.8728 64.5445 36.1656 65.9138L47.2755 77.7025C48.6711 79.1832 50.5259 80 52.5021 80C54.4782 80 56.3309 79.1832 57.7287 77.7025L68.8385 65.9138C71.7205 62.8563 71.7205 57.8836 68.8385 54.8239L65.7055 51.5V51.5ZM38.6852 39.7571L49.7951 27.9706C50.5176 27.204 51.479 26.7803 52.5021 26.7803C53.5251 26.7803 54.4844 27.204 55.209 27.9706L66.3189 39.7571C67.8113 41.3405 67.8113 43.9175 66.3189 45.5008L63.1858 48.8269L57.7287 43.0374C56.3309 41.5567 54.4762 40.7399 52.5021 40.7421C50.5279 40.7421 48.6711 41.5567 47.2755 43.0395L41.8204 48.8269L38.6852 45.5008C37.9606 44.7343 37.5633 43.7144 37.5633 42.629C37.5633 41.5436 37.9606 40.5259 38.6852 39.7571V39.7571ZM66.3189 63.2407L55.209 75.0294C54.4844 75.7982 53.5251 76.2197 52.5021 76.2197C51.479 76.2197 50.5176 75.7982 49.7951 75.0294L38.6852 63.2407C37.9606 62.4741 37.5633 61.4543 37.5633 60.3688C37.5633 59.2834 37.9606 58.2657 38.6852 57.497L41.8183 54.1731L47.1664 59.8469C48.5188 61.2817 50.318 62.1815 52.2283 62.2557C54.3033 62.3366 56.2692 61.5132 57.7307 59.9648L59.958 57.6018C60.3512 57.1847 60.3512 56.5099 59.958 56.0949L58.8588 54.9287C58.4656 54.5138 57.8295 54.5138 57.4384 54.9287L55.2111 57.2917C54.433 58.1151 53.3811 58.5431 52.2736 58.4754C51.3143 58.4164 50.4168 57.9491 49.7354 57.2262L44.34 51.5L49.7972 45.7105C50.5197 44.9439 51.481 44.5224 52.5041 44.5224C53.5272 44.5224 54.4885 44.9439 55.2111 45.7105L66.321 57.497C67.8134 59.0825 67.8134 61.6574 66.321 63.2407H66.3189Z" fill="white"/>
</g>
<defs>
<filter id="filter0_dd_988_3099" x="0" y="0" width="106" height="106" filterUnits="userSpaceOnUse" color-interpolation-filters="sRGB">
<feFlood flood-opacity="0" result="BackgroundImageFix"/>
<feColorMatrix in="SourceAlpha" type="matrix" values="0 0 0 0 0 0 0 0 0 0 0 0 0 0 0 0 0 0 127 0" result="hardAlpha"/>
<feOffset dy="1"/>
<feGaussianBlur stdDeviation="1"/>
<feColorMatrix type="matrix" values="0 0 0 0 0.0627451 0 0 0 0 0.0941176 0 0 0 0 0.156863 0 0 0 0.06 0"/>
<feBlend mode="normal" in2="BackgroundImageFix" result="effect1_dropShadow_988_3099"/>
<feColorMatrix in="SourceAlpha" type="matrix" values="0 0 0 0 0 0 0 0 0 0 0 0 0 0 0 0 0 0 127 0" result="hardAlpha"/>
<feOffset dy="1"/>
<feGaussianBlur stdDeviation="1.5"/>
<feColorMatrix type="matrix" values="0 0 0 0 0.0627451 0 0 0 0 0.0941176 0 0 0 0 0.156863 0 0 0 0.1 0"/>
<feBlend mode="normal" in2="effect1_dropShadow_988_3099" result="effect2_dropShadow_988_3099"/>
<feBlend mode="normal" in="SourceGraphic" in2="effect2_dropShadow_988_3099" result="shape"/>
</filter>
</defs>
</svg>
